<?xml version="1.0" encoding="utf-8"?>
<!-- Generator: Adobe Illustrator 23.0.2, SVG Export Plug-In . SVG Version: 6.00 Build 0)  -->
<svg version="1.1" id="b9c085e1-b209-40d5-b9c5-2decca8817ec"
	 xmlns="http://www.w3.org/2000/svg" xmlns:xlink="http://www.w3.org/1999/xlink" x="0px" y="0px" viewBox="0 0 944.7 494.3"
	 style="enable-background:new 0 0 944.7 494.3;" xml:space="preserve">
<style type="text/css">
	.st0{opacity:0.97;fill:#3F3D56;}
	.st1{fill:#F2F2F2;}
	.st2{fill:#4FBFDD;}
	.st3{fill:#3F3D56;}
	.st4{fill:none;stroke:#F2F2F2;stroke-width:2;stroke-miterlimit:10;}
	.st5{opacity:0.3;fill:#4FBFDD;enable-background:new    ;}
	.st6{fill:#192534;}
	.st7{opacity:0.1;enable-background:new    ;}
	.st8{fill:#A0616A;}
	.st9{opacity:0.1;fill:none;stroke:#000000;stroke-miterlimit:10;enable-background:new    ;}
	.st10{fill:#FFC1C7;}
	.st11{opacity:5.000000e-02;enable-background:new    ;}
	.st12{fill:#FBBEBE;}
	.st13{fill:url(#SVGID_1_);}
	.st14{fill:#575A89;}
	.st15{fill:#CBCEDA;}
	.st16{opacity:0.1;}
</style>
<title>online friends</title>
<ellipse class="st0" cx="473.6" cy="457.7" rx="465.3" ry="28.8"/>
<path class="st1" d="M98.1,11.9h740c10.5,0,19.1,8.5,19.1,19.1v387.3c0,10.5-8.5,19.1-19.1,19.1h-740c-10.5,0-19.1-8.5-19.1-19.1V31
	C79.1,20.4,87.6,11.9,98.1,11.9z"/>
<path class="st2" d="M79.5,32.9h250l0,0v404.9l0,0h-231c-10.5,0-19.1-8.5-19.1-19.1l0,0V32.9L79.5,32.9z"/>
<path class="st3" d="M857.1,31v10.8H79.1V31c0-10.5,8.5-19,19-19c0,0,0,0,0,0h740C848.6,11.9,857.1,20.4,857.1,31
	C857.1,31,857.1,31,857.1,31z"/>
<circle class="st2" cx="99.1" cy="27.3" r="5.6"/>
<circle class="st2" cx="113.1" cy="27.3" r="5.6"/>
<circle class="st2" cx="127.1" cy="27.3" r="5.6"/>
<path class="st4" d="M232.5,216.7"/>
<path class="st4" d="M219.5,215.8"/>
<path class="st5" d="M489.8,92.3h321.4c0.6,0,1.2,0.5,1.2,1.2v7.9c0,0.6-0.5,1.2-1.2,1.2H489.8c-0.6,0-1.2-0.5-1.2-1.2v-7.9
	C488.6,92.8,489.1,92.3,489.8,92.3z"/>
<path class="st2" d="M740.7,111.8h65.8c0.6,0,1.2,0.5,1.2,1.2v21c0,0.6-0.5,1.2-1.2,1.2h-65.8c-0.6,0-1.2-0.5-1.2-1.2v-21
	C739.6,112.4,740.1,111.8,740.7,111.8z"/>
<path class="st5" d="M489.8,217h321.4c0.6,0,1.2,0.5,1.2,1.2v7.9c0,0.6-0.5,1.2-1.2,1.2H489.8c-0.6,0-1.2-0.5-1.2-1.2v-7.9
	C488.6,217.6,489.1,217,489.8,217z"/>
<path class="st2" d="M740.7,236.6h65.8c0.6,0,1.2,0.5,1.2,1.2v21c0,0.6-0.5,1.2-1.2,1.2h-65.8c-0.6,0-1.2-0.5-1.2-1.2v-21
	C739.6,237.2,740.1,236.6,740.7,236.6z"/>
<path class="st5" d="M489.8,343.9h321.4c0.6,0,1.2,0.5,1.2,1.2v7.9c0,0.6-0.5,1.2-1.2,1.2H489.8c-0.6,0-1.2-0.5-1.2-1.2v-7.9
	C488.6,344.4,489.1,343.9,489.8,343.9z"/>
<path class="st2" d="M740.7,363.5h65.8c0.6,0,1.2,0.5,1.2,1.2v21c0,0.6-0.5,1.2-1.2,1.2h-65.8c-0.6,0-1.2-0.5-1.2-1.2v-21
	C739.6,364,740.1,363.5,740.7,363.5z"/>
<ellipse transform="matrix(0.1891 -0.982 0.982 0.1891 105.0417 604.2021)" class="st3" cx="418.4" cy="238.5" rx="46.2" ry="46.2"/>
<path class="st6" d="M459.1,262.9c-0.1,0.1-0.1,0.2-0.2,0.3c-0.5,0.8-1,1.6-1.6,2.4c-5.1,7.1-12.2,12.6-20.3,15.8
	c-0.8,0.3-1.6,0.6-2.5,0.9c-0.8-0.6-1.5-1.3-2.1-2c-1.9-2.2-3.2-4.9-3.7-7.7c-1.2,0.2-2.5,0.4-3.7,0.4c-0.1,0-0.2,0-0.4,0
	c-9.6-0.2-17.9-7.2-21.5-17.2l-0.1-0.4c-2.2-6.5-2.5-13.6-0.7-20.3l0,0c0-0.2,0.1-0.4,0.2-0.7c3.2-10.8,11.5-18.7,21.4-19.3
	c0.3,0,0.6,0,0.9,0c0.3,0,0.5,0,0.8,0h0.4c12.5,0.5,22.6,12.6,23.1,27.8c5.2,3.4,8,9.6,7.1,15.8
	C457.3,259.8,458.3,261.3,459.1,262.9z"/>
<path class="st7" d="M458.9,263.2c-0.5,0.8-1,1.6-1.6,2.4c-0.7-1.2-1.5-2.3-2.5-3.3c0.1-0.8,0.2-1.5,0.2-2.3
	c0-5.4-2.7-10.5-7.3-13.5c-0.5-15.5-11-27.9-23.9-27.9c-9.2,0-17.2,6.3-21.2,15.5c-0.1,0.2-0.2,0.5-0.3,0.7l0,0
	c-0.3,0.8-0.6,1.6-0.9,2.5c0.3-1.7,0.8-3.4,1.4-5l0.1-0.1c3.6-9.9,11.6-16.9,21-17.3c0.3,0,0.6,0,0.9,0c0.3,0,0.5,0,0.8,0h0.4
	c12.4,0.7,22.3,12.8,22.7,27.8c5.2,3.4,8,9.6,7.1,15.8C457.1,259.8,458.2,261.4,458.9,263.2z"/>
<path class="st8" d="M410.2,249.9c0.1,0.9,0,1.9-0.3,2.8c-0.6,1.3-1.9,2.4-1.5,3.7c0.4,0.8,1.1,1.4,2,1.6c4,1.4,8.4,0.6,12.7,0.7
	c1.4,0.1,2.8,0.2,4.3,0.1c1.4,0,2.8-0.5,4-1.4c-2.2-1.1-4.3-2.4-6.2-3.9c-0.5-0.3-0.9-0.8-1.3-1.2c-0.8-1.3-1.2-2.8-1.1-4.3
	c0-1.5,0-3,0-4.4c-3,0-6.1,0-9.1,0c-0.9,0-3.9-0.2-4.3,0.8c-0.2,0.5,0.5,2.1,0.6,2.6C410.1,248.1,410.2,249,410.2,249.9z"/>
<path class="st7" d="M410.2,249.9c0.1,0.9,0,1.9-0.3,2.8c-0.6,1.3-1.9,2.4-1.5,3.7c0.4,0.8,1.1,1.4,2,1.6c4,1.4,8.4,0.6,12.7,0.7
	c1.4,0.1,2.8,0.2,4.3,0.1c1.4,0,2.8-0.5,4-1.4c-2.2-1.1-4.3-2.4-6.2-3.9c-0.5-0.3-0.9-0.8-1.3-1.2c-0.8-1.3-1.2-2.8-1.1-4.3
	c0-1.5,0-3,0-4.4c-3,0-6.1,0-9.1,0c-0.9,0-3.9-0.2-4.3,0.8c-0.2,0.5,0.5,2.1,0.6,2.6C410.1,248.1,410.2,249,410.2,249.9z"/>
<circle class="st8" cx="416.5" cy="237.9" r="10.7"/>
<path class="st2" d="M436.8,269c0,0.3-0.1,0.6-0.1,0.9c-0.3,1.7-0.9,3.4-1.5,5.1c-0.4,1.1-0.9,2.2-1.4,3.2c-0.4,0.7-0.9,1.4-1.4,2.1
	l-0.6,1c-0.4,0.7-0.7,1.4-1,2.1c-1.8,0.5-3.6,0.8-5.5,1c-1.8,0.2-3.6,0.3-5.4,0.3c-9.7,0-20.3-2.5-27.7-7.7c0,0,1.1-0.8,0.9-0.9
	c0-0.4,0-0.8,0-1.3c0-1.1,0.2-2.2,0.5-3.2c0.3-1,0.9-1.9,1.6-2.6c0.9-0.9,2.2-1.5,3.2-2.4c1.3-1.2,2.2-2.8,2.6-4.5l0,0
	c0.2-0.7,0.4-1.5,0.6-2.3c0.1-1,0.4-2.1,0.9-3c0.1-0.1,0.1-0.2,0.2-0.4c0.1-0.2,0.3-0.5,0.5-0.7c1-0.9,2.1-1.7,3.3-2.2
	c1-0.5,2.4-0.9,3.2-0.1v0.1c0.2,0.5,0.4,1.1,0.6,1.6c0.6,1.2,2.2,1.3,3.4,1.3c4.6-0.1,9.1-0.5,13.6-1.1l2.2-0.4
	c1.6-0.3,2.7,1.1,3.6,2.5C435.2,260.8,437.2,264.8,436.8,269z"/>
<path class="st9" d="M404.1,269.7c-1,0.2-1.6,1.2-2,2.1c-0.9,1.5-1.3,3.2-1.1,5c0,0.7,0,1.4,0.2,2c0.2,0.7,0.6,1.2,1.2,1.6"/>
<ellipse transform="matrix(0.2477 -0.9688 0.9688 0.2477 92.4102 579.3353)" class="st6" cx="419.2" cy="230.2" rx="5.9" ry="12"/>
<path class="st7" d="M418.4,233.6c-5.7-1.5-9.9-4.7-10.3-7.6c-0.3,0.3-0.5,0.7-0.6,1.1c-0.8,3.2,3.7,7.1,10.1,8.7
	c6.4,1.6,12.3,0.4,13.1-2.8c0.1-0.4,0.1-0.7,0.1-1.1C429.1,234.3,424,235.1,418.4,233.6z"/>
<path class="st8" d="M437.1,276.6c0,1.6,0,3.2-0.1,4.8c-0.8,0.3-1.6,0.6-2.5,0.9c-1.2,0.4-2.5,0.8-3.7,1.1c-1.8,0.5-3.6,0.8-5.5,1
	c-0.3-3.9-1.1-7.6-0.7-11.5l0,0c0.3-3,1.3-5.9,3-8.4c0.7-1.1,1.6-2,2.7-2.6c1.1-0.6,2.5-0.5,3.6,0.3c0.6,0.7,1.1,1.5,1.3,2.4
	c0.6,1.8,1.1,3.5,1.5,5.4c0,0.2,0.1,0.4,0.1,0.6C437.1,272.5,437.2,274.5,437.1,276.6z"/>
<path class="st3" d="M464.5,365.4c0,7.7-1.9,15.3-5.6,22.1c-0.4,0.7-0.8,1.5-1.3,2.2c-0.1,0.1-0.1,0.2-0.2,0.3
	c-0.5,0.8-1,1.6-1.6,2.4c-3.5,4.9-8,9.1-13.2,12.2l-0.3,0.2c-1.7,1-3.5,1.9-5.3,2.7c-0.5,0.2-1,0.4-1.5,0.7c-0.5,0.2-1,0.4-1.5,0.6
	c-0.3,0.1-0.5,0.2-0.8,0.3l0,0c0,0-0.1,0-0.1,0c-0.6,0.2-1.2,0.4-1.7,0.6l-0.4,0.1c-0.5,0.2-1,0.3-1.6,0.4c-1.8,0.5-3.6,0.8-5.5,1
	l0,0c-1.8,0.2-3.6,0.3-5.4,0.3c-0.2,0-0.4,0-0.6,0c-2.5,0-5-0.2-7.5-0.7l-0.4-0.1c-0.5-0.1-0.9-0.2-1.4-0.3l0,0l-0.9-0.2
	c-0.9-0.2-1.8-0.5-2.7-0.7c-1.8-0.5-3.6-1.2-5.3-2l-0.2-0.1c-2.5-1.2-5-2.5-7.3-4.1c-0.2-0.1-0.4-0.2-0.6-0.4
	c-20.8-14.8-25.6-43.7-10.8-64.4c14.8-20.8,43.7-25.6,64.4-10.8C457.4,336.4,464.6,350.4,464.5,365.4L464.5,365.4z"/>
<path class="st6" d="M429.5,354.2c-0.2,5.4-4.8,9.6-10.2,9.4c-5.1-0.2-9.1-4.3-9.4-9.4c0-0.2,0-0.3,0-0.5c0-5.4,4.4-9.8,9.8-9.8
	s9.8,4.4,9.8,9.8C429.5,353.9,429.5,354.1,429.5,354.2z"/>
<path class="st7" d="M429.5,354.2c-0.2,5.4-4.8,9.6-10.2,9.4c-5.1-0.2-9.1-4.3-9.4-9.4c0-0.2,0-0.3,0-0.5c5.7-4.7,13.9-4.7,19.6,0
	C429.5,353.9,429.5,354.1,429.5,354.2z"/>
<circle class="st6" cx="419.7" cy="366.6" r="15.5"/>
<path class="st6" d="M410.3,352.1c0-4.9,3.6-9.1,8.5-9.7c-5.4-0.7-10.3,3-11,8.4c-0.7,5.4,3,10.3,8.4,11c0.9,0.1,1.8,0.1,2.6,0
	C414,361.2,410.3,357,410.3,352.1z"/>
<path class="st6" d="M402.3,372.9c-3.7-3.3-4.4-8.7-1.7-12.8c-0.3,0.3-0.6,0.6-0.9,0.9c-3.7,4-3.4,10.2,0.5,13.9
	c4,3.7,10.2,3.4,13.9-0.5c0.1-0.1,0.2-0.2,0.3-0.4c0.3-0.3,0.6-0.7,0.8-1C411.5,376.2,405.9,376.2,402.3,372.9z"/>
<path class="st10" d="M411.6,386.3c-0.8,0.2-1.6,0.4-2.3,0.8c-1.3,0.9-1.2,2.8-0.9,4.3c0.9,3.5,3,6.8,6.3,8.2c2,0.7,4.2,1.1,6.4,0.9
	c2.3,0,5-0.3,6.4-2.2c0.7-1,1.1-2.1,1.3-3.2c0.7-2.8,1.4-5.7,1.2-8.6c-1.4,0.1-3,0.2-4.1-0.7c-1.1-0.9-1.4-2.6-1.9-4
	c-0.1-0.2-0.2-0.4-0.4-0.6c-0.2-0.1-0.4-0.1-0.7-0.1c-1.5,0.1-3,0-4.5-0.2c-0.9-0.1-3.2-1.1-3.9-0.3c-0.5,0.6-0.2,2.4-0.6,3.2
	C413.6,385,412.7,385.9,411.6,386.3z"/>
<path class="st11" d="M411.6,386.3c-0.8,0.2-1.6,0.4-2.3,0.8c-1.3,0.9-1.2,2.8-0.9,4.3c0.9,3.5,3,6.8,6.3,8.2c2,0.7,4.2,1.1,6.4,0.9
	c2.3,0,5-0.3,6.4-2.2c0.7-1,1.1-2.1,1.3-3.2c0.7-2.8,1.4-5.7,1.2-8.6c-1.4,0.1-3,0.2-4.1-0.7c-1.1-0.9-1.4-2.6-1.9-4
	c-0.1-0.2-0.2-0.4-0.4-0.6c-0.2-0.1-0.4-0.1-0.7-0.1c-1.5,0.1-3,0-4.5-0.2c-0.9-0.1-3.2-1.1-3.9-0.3c-0.5,0.6-0.2,2.4-0.6,3.2
	C413.6,385,412.7,385.9,411.6,386.3z"/>
<circle class="st10" cx="419.5" cy="374.1" r="10.8"/>
<path class="st2" d="M443.2,397.5c-0.1,0.1-0.1,0.2-0.2,0.3l-0.5,0.6c-2.3,2.8-4.2,5.9-5.5,9.2c-0.5,0.2-1,0.4-1.5,0.7
	c-0.5,0.2-1,0.4-1.5,0.6c-0.3,0.1-0.5,0.2-0.8,0.3l0,0c0,0-0.1,0-0.1,0c-0.6,0.2-1.2,0.4-1.7,0.6l-0.4,0.1c-0.5,0.2-1,0.3-1.6,0.4
	c-1.8,0.5-3.6,0.8-5.5,1l0,0c-1.8,0.2-3.6,0.3-5.4,0.3c-0.2,0-0.4,0-0.6,0c-2.5,0-5-0.2-7.5-0.7l-0.4-0.1c-0.5-0.1-0.9-0.2-1.4-0.3
	l0,0l-0.9-0.2c-0.9-0.2-1.8-0.5-2.7-0.7c0.2-1.6,0.9-3,2-4.2c-2.1-2.5-5.6-3.5-7.8-5.9c-0.2-0.2-0.4-0.5-0.5-0.7
	c-0.1-0.2-0.2-0.4-0.3-0.6c-0.1-0.2-0.1-0.3-0.1-0.5c-0.1-0.3-0.1-0.7-0.1-1c-0.1-2.6,0.1-5.7,2.1-7.3c1-0.7,2.1-1.2,3.3-1.5
	c2.1-0.7,4.1-1.5,6.1-2.4c0.2,0.4,0.3,0.9,0.4,1.3c0.2,1.1,0.2,2.2,0.4,3.3c0.5,1.9,1.7,3.6,3.3,4.7c1.6,1.1,3.5,1.8,5.5,2
	c1.9,0.3,3.5-0.7,5.3-1.4c0.8-0.3,1.5-0.7,2.2-1.2c0.8-0.9,1.3-2.2,1.2-3.4c0-1.2-0.1-2.5-0.1-3.7c0-0.1,0-0.3,0-0.4
	c0-0.7,0.4-1.3,1.1-1.5c0.3,0,0.7,0,1,0.2l3.5,1.3c1.5,0.5,3,1.2,4.3,2C440.9,390.6,442.9,393.9,443.2,397.5z"/>
<path class="st7" d="M410.3,410.9l-0.4-0.1c-0.5-0.1-0.9-0.2-1.4-0.3l0,0l-0.9-0.2c-0.9-0.2-1.8-0.5-2.7-0.7c-1.8-0.5-3.6-1.2-5.3-2
	c-0.9-2.8-1.2-5.8-0.9-8.8c0.1-1.3,0.4-2.5,0.8-3.7c2,1.9,5.3,0.8,7.5,2.3c0.6,0.4,1.1,1,1.4,1.6c0.6,1.2,1,2.5,1.3,3.8
	c0.1,0.7,0.3,1.5,0.4,2.2c0,0.1,0,0.2,0,0.3c0,0.1,0,0.2,0,0.4c0.1,0.5,0.1,1.1,0.2,1.6C410.3,408.5,410.3,409.7,410.3,410.9z"/>
<path class="st2" d="M409.9,410.8c-0.5-0.1-0.9-0.2-1.4-0.3l0,0l-0.9-0.2c-0.9-0.2-1.8-0.5-2.7-0.7c-1.8-0.5-3.6-1.2-5.3-2l-0.2-0.1
	c-1.1-3.1-1.5-6.5-1.2-9.8c0.1-1.2,0.4-2.4,0.8-3.5c2,1.9,5.3,0.8,7.5,2.3c0.9,0.6,1.5,1.5,1.9,2.5c0.4,1,0.6,1.9,0.8,3
	c0.2,1.1,0.4,2.2,0.5,3.3c0,0.2,0,0.3,0,0.5c0,0.1,0,0.2,0,0.3c0,0.1,0,0.3,0,0.4C409.9,407.9,409.9,409.3,409.9,410.8z"/>
<path class="st7" d="M442.3,404.9c-1.7,1-3.5,1.9-5.3,2.7c-0.5,0.2-1,0.4-1.5,0.7c-0.5,0.2-1,0.4-1.5,0.6c-0.3,0.1-0.5,0.2-0.8,0.3
	l0,0c0,0-0.1,0-0.1,0c-0.6,0.2-1.2,0.4-1.7,0.6l-0.4,0.1c0-0.8,0-1.7,0.1-2.5c0.1-0.7,0.1-1.3,0.2-2c0-0.1,0-0.2,0-0.4
	c0-0.1,0-0.2,0-0.2c0.1-0.6,0.2-1.3,0.4-1.9c0.2-1.3,0.6-2.6,1.3-3.8c0.3-0.6,0.8-1.2,1.4-1.6c2.2-1.5,5.6-0.5,7.5-2.3
	c0.4,1.1,0.6,2.2,0.8,3.3C442.7,400.6,442.7,402.8,442.3,404.9z"/>
<path class="st2" d="M442.6,404.7l-0.3,0.2c-1.7,1-3.5,1.9-5.3,2.7c-0.5,0.2-1,0.4-1.5,0.7c-0.5,0.2-1,0.4-1.5,0.6
	c-0.3,0.1-0.5,0.2-0.8,0.3l0,0c0,0-0.1,0-0.1,0c-0.6,0.2-1.2,0.4-1.7,0.6c0-1.1,0-2.2,0.1-3.3c0-0.3,0-0.6,0.1-0.8
	c0-0.1,0-0.3,0-0.4c0-0.1,0-0.2,0-0.3c0.1-1,0.3-2,0.5-3c0.2-1,0.4-2,0.8-3c0.4-1,1-1.8,1.9-2.5c2.2-1.5,5.6-0.5,7.5-2.3
	c0.4,1.2,0.7,2.4,0.8,3.6C443.1,400.1,443,402.4,442.6,404.7z"/>
<ellipse class="st6" cx="419.3" cy="363.9" rx="13" ry="8.7"/>
<path class="st11" d="M408.5,409.2c0,0.2,0,0.4,0,0.6c0,0.2,0,0.4,0,0.6c0,0,0,0,0,0.1l0,0l-0.9-0.2c0-0.2,0-0.3,0-0.5
	c0-1.8,0.8-3.4,2.1-4.6c0.1-0.1,0.2-0.2,0.3-0.2c0.5-0.4,1.1-0.7,1.7-0.9c0.6-0.2,1.2-0.3,1.8-0.3c0.1,0,0.2,0,0.2,0
	c0.1,0,0.3,0,0.4,0h-0.3c-1.4,0.2-2.8,0.8-3.7,1.9c-0.1,0.1-0.2,0.2-0.3,0.3C409.1,406.9,408.6,408,408.5,409.2z"/>
<path class="st2" d="M418,409.8c0,0.6-0.1,1.2-0.2,1.7c-2.5,0-5-0.2-7.5-0.7l-0.4-0.1c-0.5-0.1-0.9-0.2-1.4-0.3l0,0v-0.1
	c0-0.2,0-0.4,0-0.6c0-0.2,0-0.4,0-0.6c0.1-1.3,0.5-2.5,1.2-3.5c0.1-0.1,0.2-0.2,0.3-0.4c0.4-0.5,1-1,1.6-1.3c0.5-0.2,1-0.4,1.6-0.4
	c0.1,0,0.1,0,0.2,0c0.1,0,0.3,0,0.4,0C416.2,404.2,418,406.7,418,409.8z"/>
<path class="st11" d="M433.9,408.9c-0.3,0.1-0.5,0.2-0.8,0.3l0,0c-0.1-1.3-0.7-2.6-1.7-3.5l-0.3-0.3c-0.9-0.8-2.1-1.4-3.3-1.5h-0.3
	c0.1,0,0.3,0,0.4,0c0.1,0,0.2,0,0.3,0c0.6,0,1.2,0.1,1.8,0.3c0.4,0.2,0.9,0.4,1.3,0.6c0.1,0.1,0.2,0.1,0.3,0.2
	C432.8,405.9,433.7,407.3,433.9,408.9z"/>
<path class="st2" d="M433.1,409.2L433.1,409.2C433.1,409.2,433.1,409.2,433.1,409.2c-0.7,0.2-1.3,0.4-1.8,0.6l-0.4,0.1
	c-0.5,0.2-1,0.3-1.6,0.4c-1.8,0.5-3.6,0.8-5.5,1l0,0c-0.1-0.5-0.1-0.9-0.1-1.4c0-3.1,1.9-5.7,4.2-6c0.1,0,0.2,0,0.4,0
	c0.1,0,0.1,0,0.2,0c0.5,0,1.1,0.1,1.6,0.4c0.5,0.2,0.9,0.5,1.3,0.8c0.1,0.1,0.2,0.2,0.3,0.3C432.5,406.4,433,407.7,433.1,409.2z"/>
<path class="st7" d="M419.3,371.7c-7,0-12.6-3.6-13-8.2c0,0.1,0,0.3,0,0.4c0,4.8,5.8,8.7,13,8.7s13-3.9,13-8.7c0-0.1,0-0.3,0-0.4
	C431.9,368.1,426.2,371.7,419.3,371.7z"/>
<path class="st3" d="M372.2,113.7c0,7.7,1.9,15.3,5.6,22.1c0.4,0.8,0.8,1.5,1.3,2.2c0.1,0.1,0.1,0.2,0.2,0.3
	c0.5,0.8,1.1,1.6,1.7,2.4c1.9,2.7,4.2,5.2,6.7,7.4c0.5,0.4,0.9,0.9,1.5,1.3c1.6,1.3,3.3,2.5,5.1,3.6l0.3,0.2c1.7,1,3.5,1.9,5.3,2.7
	l1.6,0.6c0.5,0.2,1,0.4,1.5,0.6c0.3,0.1,0.5,0.2,0.8,0.3l0,0l0,0h0.1c0.6,0.2,1.1,0.4,1.7,0.6l0.4,0.1c0.5,0.2,1.1,0.3,1.6,0.4
	c0.7,0.2,1.4,0.3,2.1,0.5c1.1,0.2,2.2,0.4,3.3,0.5l0,0c1.8,0.2,3.6,0.3,5.4,0.3h0.6c2.5,0,5-0.2,7.5-0.7c0.2,0,0.3,0,0.4-0.1
	c0.5-0.1,0.9-0.2,1.4-0.3l0,0c0.3-0.1,0.6-0.1,0.9-0.2c0.9-0.2,1.9-0.4,2.7-0.7c0.6-0.2,1.1-0.3,1.6-0.5c1.1-0.4,2.2-0.8,3.2-1.3
	c0.2-0.1,0.3-0.1,0.5-0.2l0.2-0.1c1.4-0.6,2.7-1.3,4-2.1c1.1-0.6,2.2-1.3,3.2-2.1h0.1c0.2-0.1,0.3-0.2,0.5-0.3
	c20.8-14.8,25.6-43.6,10.9-64.4c-14.8-20.8-43.6-25.6-64.4-10.9C379.4,84.7,372.1,98.8,372.2,113.7z"/>
<path class="st2" d="M428.6,132c0.7,0.6,1.2,1.4,1.4,2.3c-1.3,0.4-2.7-0.3-4-0.9c-3.9-1.8-8-3.1-12.2-3.9c-0.3,0-0.7-0.2-0.9-0.4
	c-0.4-0.6-0.4-1.4,0.1-2c0.5-0.5,1.3-0.4,2-0.4C420,126.4,425,128.4,428.6,132L428.6,132z"/>
<path class="st12" d="M415,128.3c-0.6,1.4-1.7,2.5-3.1,3.1c-0.8,0.3-1.6,0.3-2.3,0.5c-0.8,0.2-1.5,0.7-1.8,1.4
	c-0.1,0.3-0.1,0.7-0.1,1c-0.1,3.2-0.2,6.5,1.1,9.5c1.1,2.6,3.1,4.6,5.2,6.5c2.4,2.2,4.8,4.5,7.9,5.5c1.8,0.6,3.9,0.7,5.4-0.5
	c0.6-0.5,1.1-1.1,1.5-1.8c1-1.4,1.9-2.9,2.6-4.5c1.3-3.3,0.8-7,0.4-10.5c0-0.2-0.1-0.4-0.2-0.6c-0.2-0.1-0.4-0.2-0.7-0.1
	c-1.6,0.2-3.2-0.7-3.9-2.2c-0.2-0.7-0.3-1.4-0.2-2.1l0.1-4c0-0.4,0-0.9-0.1-1.3c-0.4-0.7-1-1.2-1.7-1.4c-2.2-1.1-4.5-2-6.8-2.7
	c-1-0.3-1.8-0.8-2.3,0.3C415.5,125.8,415.5,127.2,415,128.3z"/>
<path class="st7" d="M415,128.3c-0.6,1.4-1.7,2.5-3.1,3.1c-0.8,0.3-1.6,0.3-2.3,0.5c-0.8,0.2-1.5,0.7-1.8,1.4
	c-0.1,0.3-0.1,0.7-0.1,1c-0.1,3.2-0.2,6.5,1.1,9.5c1.1,2.6,3.1,4.6,5.2,6.5c2.4,2.2,4.8,4.5,7.9,5.5c1.8,0.6,3.9,0.7,5.4-0.5
	c0.6-0.5,1.1-1.1,1.5-1.8c1-1.4,1.9-2.9,2.6-4.5c1.3-3.3,0.8-7,0.4-10.5c0-0.2-0.1-0.4-0.2-0.6c-0.2-0.1-0.4-0.2-0.7-0.1
	c-1.6,0.2-3.2-0.7-3.9-2.2c-0.2-0.7-0.3-1.4-0.2-2.1l0.1-4c0-0.4,0-0.9-0.1-1.3c-0.4-0.7-1-1.2-1.7-1.4c-2.2-1.1-4.5-2-6.8-2.7
	c-1-0.3-1.8-0.8-2.3,0.3C415.5,125.8,415.5,127.2,415,128.3z"/>
<circle class="st12" cx="425.8" cy="119.4" r="12.2"/>
<path class="st1" d="M409.6,159.1c1.1,0.2,2.2,0.4,3.3,0.5l0,0c1.8,0.2,3.6,0.3,5.4,0.3h0.6c2.5,0,5-0.2,7.5-0.7
	c0.2,0,0.3,0,0.4-0.1c0.5-0.1,0.9-0.2,1.4-0.3l0,0c0.3-0.1,0.6-0.1,0.9-0.2c0.9-0.2,1.9-0.4,2.7-0.7c0.6-0.2,1.1-0.3,1.6-0.5
	c1.1-0.4,2.2-0.8,3.2-1.3c-0.3-0.8-0.5-1.7-0.7-2.5c-0.3-1.8-0.4-3.7-0.4-5.5c0-1.5,0.1-3,0-4.4c0-1.2-0.1-2.4-0.5-3.5
	c-0.4-1.1-1.2-2.1-2.3-2.6c-1.4-0.6-3.5-0.9-4.9-0.2c-0.2,0.1-0.3,0.2-0.4,0.3c-0.3,0.2-0.5,0.6-0.7,0.9c-0.4,1.1-0.9,2.2-1.4,3.4
	c-0.3,0.8-0.6,1.5-1.1,2.2c-1.4,1.9-3.8,2.7-6,2c-0.1,0-0.3-0.1-0.4-0.2c-1.9-0.8-3.6-2.4-5.5-1.9c-1.1,0.3-2,1.1-2.4,2.1
	c0,0.1,0,0.1-0.1,0.2c-0.4,1-0.6,2-0.7,3.1C409,152.5,409.1,155.8,409.6,159.1z"/>
<path class="st2" d="M387.6,148.2c0.5,0.4,0.9,0.9,1.5,1.3c1.6,1.3,3.3,2.5,5.1,3.6l0.3,0.2c1.7,1,3.5,1.9,5.3,2.7l1.6,0.6
	c0.5,0.2,1,0.4,1.5,0.6c0.3,0.1,0.5,0.2,0.8,0.3l0,0l0,0h0.1c0.6,0.2,1.1,0.4,1.7,0.6l0.4,0.1c0.5,0.2,1.1,0.3,1.6,0.4
	c0.7,0.2,1.4,0.3,2.1,0.5c1.1,0.2,2.2,0.4,3.3,0.5l0,0c1.8,0.2,3.6,0.3,5.4,0.3h0.6c2.5,0,5-0.2,7.5-0.7c0.2,0,0.3,0,0.4-0.1
	c0.5-0.1,0.9-0.2,1.4-0.3l0,0c0.3-0.1,0.6-0.1,0.9-0.2c0.9-0.2,1.9-0.4,2.7-0.7c0.6-0.2,1.1-0.3,1.6-0.5c1.1-0.4,2.2-0.8,3.2-1.3
	c0.2-0.1,0.3-0.1,0.5-0.2l0.2-0.1c1.4-0.6,2.7-1.3,4-2.1c0.9-2.4,1.7-4.9,2.3-7.5c0,0,0-0.1,0-0.1c-1.5-2.6-2.7-5.3-4.2-7.9
	c-0.8-2-2.7-3.4-4.8-3.6c-1-0.3-2.1-0.5-3.1-0.6c-0.6-0.1-1.2-0.2-1.8-0.3c-1.2-0.3-2.6-0.5-3,0l0,0c0,0-0.1,0.1-0.1,0.1
	c-0.2,0.6-0.1,1.3,0.2,1.9c0.2,0.6,0.5,1.2,0.6,1.7c0.1,0.2,0.1,0.5,0.1,0.7c0,1.1,0,2.2-0.1,3.3c-0.3,1.6-1.1,3-1.5,4.5
	c-0.2,0.7-0.3,1.5-0.4,2.2c-0.3,1.7-0.7,3.3-1.3,4.9c-0.1,0.3-0.3,0.6-0.5,0.9c-0.8,0.9-2,0.6-3.2,0.4c-0.9-0.7-0.8-2.1-0.9-3.2
	c-0.3-1.9-0.8-3.7-1.7-5.4l-0.3-0.7c-0.9-1.9-1.9-3.9-2.7-5.8c-1.1-2.4-2.3-5.2-1.4-7.7c0.3-0.7,0.7-1.4,1-2.1
	c0-0.1,0.1-0.2,0.1-0.3c0.1-0.3,0.1-0.6,0.1-0.8c0.1-0.5-0.1-1-0.4-1.4c0-0.1-0.1-0.1-0.2-0.2c0,0-0.1-0.1-0.1-0.1
	c-0.6-0.4-1.4-0.4-2-0.1c-0.4,0.1-0.7,0.3-1.1,0.5c-1.8,1-3.6,2.2-5.3,3.4c-0.5,0.3-0.9,0.7-1.1,1.3c0,0.4-0.1,0.7-0.2,1.1
	c-0.3,0.7-1.1,0.9-1.7,1c-5.7,1.3-10.6,4.9-13.5,10c-0.5,0.8-0.9,1.7-1.2,2.6C387.8,147,387.7,147.6,387.6,148.2z"/>
<path class="st6" d="M431.1,112.5c-1.7,1.7-4.3,1.8-6.7,1.7l0.1-0.9l-3.3,1.2c0.9-0.6,1.6-1.4,2.2-2.3c-0.5-0.4-1.1-0.4-1.6-0.1
	c-0.5,0.3-0.9,0.7-1.2,1.2c-1.9,2.9-2.4,6.4-1.2,9.7c-0.7,0.3-1.5,0.3-2.1-0.1c-0.6-0.4-1.1-1-1.4-1.7c-0.2-0.4-0.4-0.9-0.9-1.1
	c-0.4-0.1-0.8,0.1-1,0.5c-0.2,0.4-0.3,0.8-0.2,1.2c0.1,0.9,0.8,1.9,0.9,2.8c0.2,0.9,1.5,1.7,0.8,2.3c-0.9,0.3-1.7,0.5-2.6,0.6
	c-0.4-0.1-0.7-0.4-0.8-0.8c-0.7-1.6-0.5-3.5-0.9-5.2c-0.4-1.4-1.1-2.7-1.9-3.8c-0.2-0.4-0.4-0.7-0.7-1c-0.3-0.2-0.5-0.5-0.7-0.8
	c-0.1-0.3,0.1-0.8,0.5-0.8c-0.6-0.6-1.2-1.1-1.9-1.5c0.7-0.8,1.3-1.7,1.9-2.5c0.2-0.3,0.4-0.7,0.3-1c-0.1-0.2-0.2-0.3-0.4-0.4
	l-1.7-1.1c0-0.8,1.6-0.5,1.8-1.2c0.1-0.2,0.1-0.4,0-0.6l-0.6-2.1l2.2,1c0.3,0.1,0.5,0.2,0.8,0.2c0.6-0.1,0.9-0.8,0.9-1.4
	c-0.1-0.6,0-1.2,0.2-1.7c1,0,2,0,3,0c0.1-0.5-0.1-1-0.4-1.4l7.4-0.4c1.2-0.1,2.5-0.1,3.7,0.3c0.4,0.2,0.8,0.3,1.2,0.3
	c0.4,0,0.8-0.4,0.7-0.8c1.1,0.6,2.1,1.4,3,2.3c0.2,0.3,0.5,0.5,0.8,0.7c0.3,0.2,0.7,0.1,1-0.1c0.2-0.2,0.3-0.6,0.6-0.6
	s0.3,0.1,0.4,0.3c0.4,0.5,0.8,1.1,1,1.8c0.5-0.1,1-0.2,1.5-0.4c-0.5,0.5-0.6,1.2-0.3,1.9c0.2,0.6,0.7,1.2,1,1.8
	c0.3,0.6,0.5,1.3,0.6,2c0.1,0.9,0.1,2-0.6,2.4c-0.7,0.3-1.6,0.1-2.1-0.5C432.8,110.7,432.5,111.1,431.1,112.5z"/>
<path class="st2" d="M389.1,149.4c1.6,1.3,3.3,2.5,5.1,3.6l0.3,0.2c1.7,1,3.5,1.9,5.3,2.7l1.6,0.6c0.5,0.2,1,0.4,1.5,0.6
	c0.3,0.1,0.5,0.2,0.8,0.3l0,0l0,0c-0.3-0.9-0.5-1.9-0.8-2.8c-0.8-2.5-2.1-4.8-4-6.6c-1.6-1.6-4.2-3.9-6.5-2.5
	c-0.7,0.5-1.4,1.1-1.9,1.8c-0.5,0.5-0.8,1.1-1.2,1.7C389.2,149.2,389.1,149.3,389.1,149.4z"/>
<path class="st2" d="M433.4,157.4c1.1-0.4,2.2-0.8,3.2-1.3c0.2-0.1,0.3-0.1,0.5-0.2l0.2-0.1c1.4-0.6,2.7-1.3,4-2.1
	c1.1-0.6,2.2-1.3,3.2-2.1h0.1c-0.1-1-0.1-2.1,0-3.1c0.1-0.3,0-0.7-0.1-1c-0.1-0.3-0.3-0.5-0.5-0.7c-0.1-0.1-0.3-0.3-0.4-0.4
	c-1.1-1.2-1.9-2.5-3.7-2.3c-1.8,0.2-3.4,1.8-4.2,3.5c-0.1,0.2-0.2,0.3-0.2,0.5c-0.5,1.6-0.9,3.3-1.2,5c-0.2,1-0.6,2-0.8,3.1
	C433.6,156.5,433.5,157,433.4,157.4z"/>
<linearGradient id="SVGID_1_" gradientUnits="userSpaceOnUse" x1="1110.9606" y1="-141.3451" x2="1110.9606" y2="-141.1212" gradientTransform="matrix(-1 0 0 -1 1333.8829 291.13)">
	<stop  offset="0" style="stop-color:#808080;stop-opacity:0.25"/>
	<stop  offset="0.54" style="stop-color:#808080;stop-opacity:0.12"/>
	<stop  offset="1" style="stop-color:#808080;stop-opacity:0.1"/>
</linearGradient>
<path class="st13" d="M223.1,432.3L223.1,432.3l-0.4,0.2L223.1,432.3z"/>
<path class="st14" d="M165.8,381.9c-3.6,10.4,0.6,27.2,2.6,34.7c1.3,5.4,2.1,11,2.6,16.5c4.4,0.7,8.9,0.6,13.2-0.3l-3.2-15.5
	c2.2-9.2,0-33.7,0-33.7s5.1-9.5,5.6-23.9c0.4-14.2,3.9-18.8,4-18.9l0,0c7.2,3.7,16.4,44,16.4,44c-0.8,9.8,0.1,24.8,3.2,32.9
	c1.8,5.2,2.6,10.6,2.3,16.1c1.2,0.8,2.7,1.1,4.1,0.8c4.3-0.7,9.4-4.4,9.4-4.4s-1.7-43.8-2.9-45.5c-1.2-1.7,0-11.1,0-11.1l-2-15.3
	c0,0,0.3-26-2.6-30.5c-2.5-3.9-3-10.7-3.1-12.5c0-0.3,0-0.4,0-0.4l-4.3-5.2c0,0-42.1-3.2-45.2,0c-0.8,0.8-1.3,2.5-1.5,4.8
	c-0.9,6.8,0.1,17.9,0.1,17.9s1.3,8.3,3.1,16.7c1.1,5.1,1.1,10.3,0,15.3C168.1,370.2,167.5,376.2,165.8,381.9z"/>
<path class="st15" d="M168.4,447.8c1.9,2.5,12.9,1.4,14.8,0.7c1.1-0.5,1.1-2.6,0.8-4.9c-0.2-1.4-0.5-2.9-0.6-3.9
	c-0.3-2.7,0.9-8.2,0.9-8.2s-2.5,2.6-3.1,0c-0.3-1-1.1-1.8-2.1-2c-1.3-0.4-2.7-0.3-3.9,0.2c-2,0.8-5.2,2.6-4.7,5.1
	c0.8,3.5-2.1,8.4-2.1,8.4C167.3,444.5,167.3,446.5,168.4,447.8L168.4,447.8z"/>
<path class="st7" d="M168.4,447.8c1.9,2.5,12.9,1.4,14.8,0.7c1.1-0.5,1.1-2.6,0.8-4.9c-1.2,0.6-3.2,1-6.5,0.7
	c-0.8-0.1-1.6-0.1-2.4-0.1c-2.4,0.1-4.8,0.1-7.2-0.1C167.4,445.3,167.6,446.7,168.4,447.8z"/>
<path class="st7" d="M207,384.9c-0.8,9.8,0.1,24.8,3.2,32.9c1.8,5.2,2.6,10.6,2.3,16.1c1.2,0.8,2.7,1.1,4.1,0.8
	c-0.9-6.3-4.8-33.7-7.2-55.2c-1.8-14.9-7.3-29.2-16-41.5l-2.6,2.9C197.8,344.6,207,384.9,207,384.9z"/>
<path class="st12" d="M172.9,226.9l1.9,9l9,15.1l11.1-4.7c0,0,15.1-15.8,5.6-18c-1.1-0.2-2.2-0.7-3.1-1.4c-1.6-1.3-2.6-3.3-2.5-5.4
	c0.1-2.2,0.6-4.4,1.5-6.5l-19.4-6.1c0.8,2.5,1.3,5.2,1.4,7.9c0.1,5.3-1.8,7.9-3.4,9.1C174.4,226.3,173.7,226.7,172.9,226.9z"/>
<path class="st7" d="M177,208.9c0.8,2.5,1.3,5.2,1.4,7.9c0.3,0.4,0.7,0.8,1.1,1.2c2.8,2.7,6.6,4.2,10.5,4.2c1.6,0,3.2-0.3,4.7-0.8
	c0.1-2.2,0.6-4.4,1.5-6.5L177,208.9z"/>
<path class="st12" d="M174.8,206.4c0,8.5,6.9,15.3,15.3,15.3s15.3-6.9,15.3-15.3c0-8.5-6.9-15.3-15.3-15.3c0,0,0,0,0,0
	c-8.4,0-15.3,6.8-15.3,15.2C174.8,206.3,174.8,206.3,174.8,206.4z"/>
<path class="st7" d="M172.9,226.9l1.9,9l9,15.1l11.1-4.7c0,0,15.1-15.8,5.6-18c-1.1-0.2-2.2-0.7-3.1-1.4c1.7,4.7-5.3,14.5-5.3,14.5
	c-0.8,1.2-2.7,0.4-2.7,0.4c-4.6-0.7-12.9-13.8-14.3-15.9C174.4,226.3,173.7,226.7,172.9,226.9z"/>
<path class="st7" d="M164.2,314.3c2.7,0.6,17.4,3.9,23,3.1c6.2-0.9,18.1-1.5,18.1-1.5s7.6,0.4,10-0.7c0-0.3,0-0.4,0-0.4l-4.3-5.2
	c0,0-42.1-3.2-45.2,0C165,310.3,164.5,312.1,164.2,314.3z"/>
<path class="st3" d="M191.9,241.8c0,0,7.9-11,4.9-15.3l13.4,5.5c0,0,8.1-1,11,11.1c0.5,2,0.6,4.1,0.5,6.1c-0.1,3.2,0.7,6.3,2.2,9.1
	c3.3,6.6,2.6,21.8-4.2,23.3c-6.8,1.5-9.2,0.7-9.2,0.7s0.9,27.5,4.8,30.7c3.9,3.2-10,2.4-10,2.4s-12,0.6-18.1,1.5
	c-6.2,0.9-23.4-3.2-23.4-3.2s2.6-11.6,3.5-18.9c0.9-7.4,3-23,3-23L155,251c0,0-2.7-12.5,6.8-18.1c9.5-5.6,13.1-6.9,13.1-6.9
	s9.5,15.5,14.5,16.3C189.2,242.2,191.1,243,191.9,241.8z"/>
<path class="st7" d="M209.5,246.1c0,0,0.1,5-0.8,6.9c-0.9,2-4.2,12.8-4.2,12.8h7.5c0,0-4.1-4.4-3.7-6.5
	C208.7,257.3,209.5,246.1,209.5,246.1z"/>
<path class="st12" d="M187.3,283.6c0,0,16.6-4.1,18.1-7.5c1.5-3.5,5.8-11.2,5.8-11.2l-1.8-2.4l-8.1,6.3c0,0-9.6,7.7-14.1,8.4
	C182.8,278,187.3,283.6,187.3,283.6z"/>
<path class="st11" d="M187.3,283.6c0,0,16.6-4.1,18.1-7.5c1.5-3.5,5.8-11.2,5.8-11.2l-1.8-2.4l-8.1,6.3c0,0-9.6,7.7-14.1,8.4
	C182.8,278,187.3,283.6,187.3,283.6z"/>
<path class="st12" d="M172.9,264v9h1.4c7.1,0,14.2,1.8,20.4,5.3l2.7,1.5l0.7,0.4l4.7-10.5l-4.4-3.9h-0.2c-1.1,0.1-5.7,0.5-7.6-0.2
	c-1.9-0.7-4.2-2.6-9.6-1.2c-2.7,0.7-5,3.7-7.6,2.8L172.9,264z"/>
<path class="st7" d="M158.4,247.7l-3,3.4v8.2c0,0,2.6,25.9,10.7,28.7c8.1,2.9,22.6-1.7,22.6-1.7s3.7-9.9,2-10.5
	c-1.7-0.6-15.5-4.2-15.5-4.2s0.2-15.2-2.8-19.7c0,0,2-14.1-4.8-14.4C160.8,237.2,158.4,247.7,158.4,247.7z"/>
<path class="st3" d="M158,247.7l-3,3.4v8.2c0,0,2.6,25.9,10.7,28.7c8.1,2.9,22.6-1.7,22.6-1.7s3.7-9.9,2-10.5
	c-1.7-0.6-15.5-4.2-15.5-4.2s0.2-15.2-2.8-19.7c0,0,1.9-14.1-4.8-14.4C160.4,237.2,158,247.7,158,247.7z"/>
<path class="st7" d="M179,212.9c-0.1-1,0-2,0.3-2.9c0.4-0.9,1.4-1.5,2.4-1.4c1.3,0.3,1.9,2,3.1,2.4c1.1,0.2,2.3-0.4,2.7-1.4
	c0.4-1,0.6-2.2,0.5-3.3c0-1.3,0-2.5,0-3.7s0-2.8,0.9-3.9c1.1-1.3,3.5-1.9,5.2-1.9c1.1,0,2.1,0.4,2.9,1.2c0.8,0.8,2,1.2,3.1,1.1
	c1-0.2,1.9-0.9,2.2-1.9c0,0,0,0,0,0c-5.1-6.7-14.7-8.1-21.5-2.9c-6.7,5.1-8.1,14.7-2.9,21.5c0.5,0.6,1,1.3,1.6,1.8
	C179.2,216,179,214.4,179,212.9z"/>
<path class="st3" d="M200.1,198.6c1-0.2,1.9-0.9,2.2-1.9c0.1-0.5,0.1-1,0.2-1.5c0.4-1.2,1.6-1.8,2.5-2.7c1.7-1.8,1.6-4.8,0.4-6.9
	c-0.9-1.7-2.8-3.2-4.8-2.9c-1.2,0.2-2.3,1.1-3.5,1.2c-1.2-0.1-2.3-0.5-3.3-1.1c-2.6-1.2-5.5-1.4-8.3-0.7c-0.9,0.2-1.6,0.6-2.3,1.2
	c-0.4,0.5-0.8,1.1-1.2,1.7c-1.4,1.8-3.9,2.1-6.1,2.5c-2.2,0.4-4.8,1.3-5.5,3.4c-0.5,1.4,0,3,0.3,4.5c0.1,0.3,0.1,0.6-0.1,0.9
	c-0.3,0.6-1.2,0.3-1.9,0.5c-1.3,0.3-1.6,1.9-1.6,3.2c-0.1,1.5-0.1,3-0.1,4.5c-0.2,1.4,0.4,2.8,1.4,3.7l5,6c2.2,2.6,4.5,5.7,4.1,9.1
	c1,0.5,2.3-0.4,2.6-1.5c0.2-1.1,0.2-2.3-0.2-3.4c-0.4-1.9-0.7-3.9-0.8-5.9c-0.1-1,0-2,0.3-2.9c0.4-0.9,1.4-1.5,2.4-1.4
	c1.3,0.3,1.9,2,3.1,2.4c1.1,0.2,2.3-0.4,2.7-1.4c0.4-1,0.6-2.2,0.5-3.3v-3.7c0-1.4,0-2.8,0.9-3.9c1.1-1.3,3.5-1.9,5.2-1.9
	c1.1,0,2.1,0.4,2.9,1.2C197.9,198.4,199,198.8,200.1,198.6z"/>
<path class="st7" d="M196.7,245.8l-4.7,19.3C192,265.1,188.3,265.1,196.7,245.8z"/>
<path class="st7" d="M180.6,242.5c0,0,6.2,10.1,3.7,20.5l-1.1,0.1C183.2,263.1,185.3,258.3,180.6,242.5z"/>
<path class="st7" d="M176.7,299.7c0,0-7.6-2.5-8.1,3.3C168.6,303,170,299,176.7,299.7z"/>
<path class="st7" d="M198.6,266.3c0,0,1.5,10.5-1.2,14.7c4.2,1.5,8.8,2.1,13.2,1.8l0.9-16.5H198.6z"/>
<path class="st7" d="M197.5,279.8l0.7,0.4l4.7-10.5l-4.4-3.9h-0.2l0,0C198.4,266.3,199.6,275.4,197.5,279.8z"/>
<path class="st3" d="M198.6,265.8c0,0,1.5,10.5-1.2,14.7c4.2,1.5,8.8,2.1,13.2,1.8l5.3-16.5H198.6z"/>
<path class="st15" d="M211.5,441.4c0.2,1.5,1.4,2.8,2.9,3c4.1,0.6,13.9,2.2,16.4,3.3c3.2,1.5,15.6,0.4,16.2-1.1
	c0.2-0.6,0.1-1.3-0.2-1.8c-0.4-0.9-1.1-1.7-2-2.2c-0.3-0.2-0.6-0.3-0.9-0.4c-2.4-0.8-6.8-2.4-8-4.2c0,0-5.5-4.8-7.1-7.5
	c-0.6-1-1.7-1.7-2.9-1.8c-1.3-0.1-2.8,0.6-3.4,3.5c0,0-7.2,4.1-9.2,0.5c0,0-0.3,5.5-1.5,7.1l0,0
	C211.6,440.3,211.4,440.8,211.5,441.4z"/>
<path class="st7" d="M211.5,441.4c0.2,1.5,1.4,2.8,2.9,3c4.1,0.6,13.9,2.2,16.4,3.3c3.2,1.5,15.6,0.4,16.2-1.1
	c0.2-0.6,0.1-1.3-0.2-1.8c-0.4-0.9-1.1-1.7-2-2.2c-2,1.4-6.5,2.7-16.5,1.1c-9.5-1.5-14.2-2.9-16.5-3.9l0,0
	C211.6,440.3,211.5,440.8,211.5,441.4z"/>
<g class="st16">
	<path d="M170.5,195.6C170.5,195.6,170.5,195.5,170.5,195.6c-0.3-1.2-0.4-2.3-0.5-3.5c0.1,0.9,0.2,1.9,0.4,2.8
		C170.6,195.1,170.6,195.4,170.5,195.6z"/>
	<path d="M179.3,209.7c-0.2,0.5-0.4,1.1-0.4,1.7c-0.1-0.8,0.1-1.6,0.4-2.4c0.4-0.9,1.4-1.5,2.4-1.4c1.3,0.3,1.9,2,3.1,2.4
		c1.1,0.2,2.3-0.4,2.7-1.4c0.4-1,0.6-2.2,0.5-3.3c0-1.3,0-2.5,0-3.7c0-1.2,0-2.8,0.9-3.9c1.1-1.3,3.5-1.9,5.2-1.9
		c1.1,0,2.1,0.4,2.9,1.2c0.8,0.8,2,1.2,3.1,1.1c1-0.2,1.9-0.9,2.2-1.9c0.1-0.5,0.1-1,0.2-1.5c0.4-1.2,1.6-1.8,2.5-2.7
		c0.8-0.9,1.2-2,1.3-3.2c0.1,1.4-0.3,2.8-1.3,3.9c-0.8,0.9-2.1,1.5-2.5,2.7c-0.1,0.5-0.1,1-0.2,1.5c-0.3,1-1.1,1.7-2.2,1.9
		c-1.1,0.1-2.3-0.3-3.1-1.1c-0.8-0.7-1.8-1.2-2.9-1.2c-1.6-0.1-4.1,0.5-5.2,1.9c-0.8,1.1-0.9,2.6-0.9,3.9c0,1.4,0,2.5,0,3.7
		c0.1,1.1-0.1,2.2-0.5,3.3c-0.5,1.1-1.6,1.6-2.7,1.4c-1.3-0.4-1.8-2.1-3.1-2.4C180.7,208.1,179.7,208.7,179.3,209.7z"/>
	<path d="M167,205.5c0.3,0.8,0.7,1.5,1.3,2.1l5,6c2.1,2.5,4.3,5.4,4.1,8.6c-0.1-2.9-2.2-5.6-4.1-7.9l-5-6c-1-0.9-1.6-2.3-1.4-3.7
		C166.8,204.9,166.9,205.2,167,205.5z"/>
	<path d="M179.9,221.2c0.1-0.3,0.1-0.5,0.1-0.8c0,0.5,0,1-0.1,1.5c-0.3,1.1-1.6,2-2.6,1.5c0-0.2,0-0.4,0-0.7
		C178.5,223,179.6,222.3,179.9,221.2z"/>
</g>
<path class="st7" d="M229.9,432c0,0-1.6,2.8-7.3,0.3"/>
<path class="st7" d="M181.7,432.7c0,0-4.9,5.8-11.1,1.9"/>
<path class="st7" d="M167.4,364.3c0,0,3.5,2.2,3.6,3.4c0.1,1.2-1.8-0.9-1.8-0.9L167.4,364.3z"/>
<path class="st7" d="M166.1,380.9c1.2,1,2.7,1.6,4.3,1.7c2.6,0.1,2.4,3.5,0.7,2.5C169.3,383.8,167.6,382.4,166.1,380.9z"/>
<path class="st7" d="M165.4,383.1c0,0,1.7,8.2,3,6.6"/>
</svg>
