<?xml version="1.0" encoding="utf-8"?>
<!-- Generator: Adobe Illustrator 23.0.2, SVG Export Plug-In . SVG Version: 6.00 Build 0)  -->
<svg version="1.1" id="Capa_1" xmlns="http://www.w3.org/2000/svg" xmlns:xlink="http://www.w3.org/1999/xlink" x="0px" y="0px"
	 viewBox="0 0 431.9 431.9" style="enable-background:new 0 0 431.9 431.9;" xml:space="preserve">
<style type="text/css">
	.st0{fill:none;stroke:#4FBFDD;stroke-width:10;stroke-miterlimit:10;}
</style>
<g>
	<path class="st0" d="M215.9,35.8c-99.4,0-180.1,80.6-180.1,180c0,99.5,80.7,180.2,180.1,180.2c99.5,0,180.1-80.7,180.1-180.2
		C396,116.4,315.4,35.8,215.9,35.8z M228.8,316c-4.2,3.7-9,5.6-14.5,5.6c-5.7,0-10.6-1.8-14.9-5.5c-4.2-3.7-6.4-8.8-6.4-15.4
		c0-5.9,2.1-10.8,6.1-14.8c4.1-4,9.1-6,15.1-6c5.9,0,10.8,2,14.8,6c4,4,6,8.9,6,14.8C235.1,307.2,233,312.3,228.8,316z M280.9,186.7
		c-3.2,6-7,11.1-11.5,15.4c-4.4,4.3-12.4,11.6-23.8,21.8c-3.2,2.9-5.7,5.4-7.6,7.6c-1.9,2.2-3.3,4.2-4.3,6c-0.9,1.8-1.7,3.6-2.2,5.5
		c-0.5,1.8-1.3,5-2.3,9.6c-1.8,9.7-7.3,14.5-16.6,14.5c-4.8,0-8.9-1.6-12.2-4.7c-3.3-3.2-4.9-7.9-4.9-14.1c0-7.8,1.2-14.6,3.6-20.3
		c2.4-5.7,5.6-10.8,9.6-15.1c4-4.3,9.4-9.5,16.2-15.4c6-5.2,10.3-9.1,12.9-11.8c2.7-2.7,4.9-5.6,6.7-8.9c1.8-3.3,2.7-6.8,2.7-10.6
		c0-7.4-2.8-13.7-8.3-18.8c-5.5-5.1-12.7-7.7-21.4-7.7c-10.2,0-17.8,2.6-22.6,7.7s-8.9,12.8-12.3,22.8c-3.2,10.5-9.2,15.8-18,15.8
		c-5.2,0-9.6-1.8-13.2-5.5c-3.6-3.7-5.4-7.7-5.4-11.9c0-8.8,2.8-17.8,8.5-26.9c5.7-9.1,14-16.6,24.9-22.5c10.9-6,23.6-8.9,38.1-8.9
		c13.5,0,25.4,2.5,35.7,7.5c10.3,5,18.3,11.7,24,20.3c5.6,8.6,8.4,17.9,8.4,27.9C285.7,173.8,284.1,180.8,280.9,186.7z"/>
</g>
</svg>
