<svg xmlns="http://www.w3.org/2000/svg" width="94.258" height="94.783" viewBox="0 0 94.258 94.783">
  <g id="SocialMediaIntegration" transform="translate(-0.117 0.517)">
    <path id="Path_519" data-name="Path 519" d="M120.576,41.881a6.524,6.524,0,0,1,.458-7.617A21,21,0,0,0,88.5,7.72,13.193,13.193,0,0,1,74.88,12.35,27.451,27.451,0,0,0,44.272,53.366H54.29A42.057,42.057,0,0,0,67.564,51.21l17.774-5.924v9.695h1.616A4.848,4.848,0,0,1,91.8,59.829v6.463a4.848,4.848,0,0,1-4.847,4.847H85.338v9.695L67.564,74.911A42.173,42.173,0,0,0,60.7,73.26a33.9,33.9,0,1,0,59.874-31.379Zm0,0" transform="translate(-31.899 0)" fill="none" stroke="#707070" stroke-linecap="round" stroke-width="1" stroke-dasharray="3"/>
    <path id="Path_520" data-name="Path 520" d="M136.275,114.083a3.232,3.232,0,0,0,3.232-3.232v-8.079a3.232,3.232,0,0,0-3.232-3.232h-1.616a3.231,3.231,0,0,1-3.232-3.232V91.462a3.232,3.232,0,1,0-6.463,0v4.847a3.232,3.232,0,0,1-3.232,3.232h-1.616v14.542Zm0,0" transform="translate(-95.762 -70.412)" fill="#def4ff"/>
    <path id="Path_521" data-name="Path 521" d="M265.733,288.388a4.848,4.848,0,0,0,4.847-4.847v-6.463a4.848,4.848,0,0,0-4.847-4.847h-1.616v16.158Zm0,0" transform="translate(-210.677 -217.248)" fill="#ffb41f"/>
    <path id="Path_522" data-name="Path 522" d="M309.044,66.083a12.927,12.927,0,1,0-12.927-12.927A12.927,12.927,0,0,0,309.044,66.083Zm0,0" transform="translate(-236.214 -32.107)" fill="#def4ff"/>
    <path id="Path_523" data-name="Path 523" d="M344.117,72.23V85.157l9.7-6.463Zm0,0" transform="translate(-274.519 -57.645)" fill="#1cc8eb"/>
    <path id="Path_524" data-name="Path 524" d="M94.58,152.388V136.23H88.117V154H94.58Zm0,0" transform="translate(-70.226 -108.717)" fill="#1cc8eb"/>
    <path id="Path_525" data-name="Path 525" d="M360.37,280.773l-2.644,1.761-2.641-1.761a3.232,3.232,0,0,0-4.078.4l-.689.689a3.232,3.232,0,0,0,0,4.571l7.409,7.409,7.41-7.409a3.23,3.23,0,0,0,0-4.571l-.688-.689A3.232,3.232,0,0,0,360.37,280.773Zm0,0" transform="translate(-278.712 -223.633)" fill="#e32210"/>
    <path id="Path_526" data-name="Path 526" d="M48.117,360.23,50,379.62a1.616,1.616,0,0,0,1.616,1.616h9.429a1.616,1.616,0,0,0,1.6-1.861L57.812,360.23Zm0,0" transform="translate(-38.305 -287.474)" fill="#474848"/>
    <path id="Path_527" data-name="Path 527" d="M9.812,283.62V264.23a9.695,9.695,0,0,0,0,19.39Zm0,0" transform="translate(0 -210.864)" fill="#474848"/>
    <path id="Path_528" data-name="Path 528" d="M54.581,283.62V264.23H48.117v19.39Zm0,0" transform="translate(-38.305 -210.864)" fill="#4fbfdd"/>
    <path id="Path_529" data-name="Path 529" d="M99.507,230.155a42.05,42.05,0,0,1-13.281,2.155H80.117V251.7h6.109a42.872,42.872,0,0,1,13.281,2.155l17.774,5.924V224.231Zm0,0" transform="translate(-63.842 -178.944)" fill="#def4ff"/>
    <path id="Path_530" data-name="Path 530" d="M59.443,366.693l-1.63-6.463H48.118Zm0,0" transform="translate(-38.305 -287.474)" fill="#7a7a7a"/>
    <path id="Path_532" data-name="Path 532" d="M120.117,184.309h16.158a3.232,3.232,0,0,0,3.232-3.232V176.23a11.827,11.827,0,0,1-10.458,6.536l-8.932.089Zm0,0" transform="translate(-95.762 -140.638)" fill="#e6e6e6"/>
    <path id="Path_533" data-name="Path 533" d="M88.117,208.23h6.463v3.232H88.117Zm0,0" transform="translate(-70.226 -166.175)" fill="#1bc1e3"/>
    <path id="Path_534" data-name="Path 534" d="M390.738,293.875l7.41-7.409a3.23,3.23,0,0,0,0-4.571l-.688-.689a3.232,3.232,0,0,0-3.623-.646,3.219,3.219,0,0,1,.945.646l.689.689c1.65,1.65.634,3.878-.477,5.5-.687,1-1.343,2.028-2.013,3.043A21.983,21.983,0,0,1,390.738,293.875Zm0,0" transform="translate(-311.724 -223.662)" fill="#c91e0e"/>
    <g id="Group_78" data-name="Group 78" transform="translate(60.293 42.008)">
      <path id="Path_535" data-name="Path 535" d="M298.1,212.548l.832-3.327a1.615,1.615,0,1,1,3.134.783l-.833,3.328a1.615,1.615,0,1,1-3.133-.784Zm0,0" transform="translate(-298.054 -207.996)" fill="#ffb41f"/>
      <path id="Path_536" data-name="Path 536" d="M320.168,237.763l3.573-1.786a1.616,1.616,0,0,1,1.445,2.891l-3.572,1.786a1.616,1.616,0,0,1-1.445-2.891Zm0,0" transform="translate(-314.987 -230.189)" fill="#ffb41f"/>
      <path id="Path_537" data-name="Path 537" d="M299.272,392.042a1.615,1.615,0,0,1,1.958,1.176l.832,3.328a1.615,1.615,0,1,1-3.134.784L298.1,394A1.616,1.616,0,0,1,299.272,392.042Zm0,0" transform="translate(-298.048 -354.83)" fill="#ffb41f"/>
      <path id="Path_538" data-name="Path 538" d="M319.443,372.7a1.617,1.617,0,0,1,2.168-.723l3.573,1.786a1.616,1.616,0,0,1-1.445,2.891l-3.573-1.786A1.617,1.617,0,0,1,319.443,372.7Zm0,0" transform="translate(-314.986 -338.719)" fill="#ffb41f"/>
    </g>
    <path id="Path_539" data-name="Path 539" d="M3.349,55.01H.117c0-23.914,14.24-38.78,37.164-38.78v3.232c-20.93,0-33.932,13.622-33.932,35.548Zm0,0" transform="translate(0 -12.955)" fill="#1cc8eb"/>
    <path id="Path_540" data-name="Path 540" d="M105.733,320.23h3.232a1.616,1.616,0,0,1,0,3.232h-3.232a1.616,1.616,0,0,1,0-3.232Zm0,0" transform="translate(-82.994 -255.553)" fill="#8c8c8c"/>
    <path id="Path_541" data-name="Path 541" d="M105.733,288.23h3.232a1.616,1.616,0,1,1,0,3.232h-3.232a1.616,1.616,0,1,1,0-3.232Zm0,0" transform="translate(-82.994 -230.017)" fill="#8c8c8c"/>
    <path id="Path_542" data-name="Path 542" d="M264.117,272.23h1.616v16.158h-1.616Zm0,0" transform="translate(-210.677 -217.248)" fill="#de9a10"/>
  </g>
</svg>
